kind: manual

provides: camera_rust

depends:
- dependency: tool_chain
  scope: Build
- dependency: tool_chain_cross
  scope: Build
- dependency: tool_chain_cross_libs
  scope: Build
- dependency: tool_chain_rust_arm
  scope: Build
- dependency: tool_chain_llvm
  scope: Build

sources:
- kind: cargo_source
  url: https://github.com/pedrosland/rascam
  sha: 8366372a9f9ff25eaa37738967e1bf5cd9e0372e


context: build_target


plugin_variables:
  join_strategy: Join
  variables:
    config_install-commands: |
      ls
      HOME="/sources" cargo install --path . --offline --root /buildstream-install/usr/ --example simple %{cargo_args_extra}
      echo "%{cargo_args_extra}"
      rm /buildstream-install/usr/.crates2.json
      rm /buildstream-install/usr/.crates.toml

    # this bit should go in the plugin definition rather than here
    # but as this is a bit work in progress its ok here
    cli: |
      mkdir -p /sources/
      mkdir -p /output_dir/
      cd /sources/
      girderstream_build_plugin_bst -v /plugin_vars.yaml -p /manual.yaml
      chmod u+x configured.sh

      cat >.cargo/config <<EOF
      [target.aarch64-unknown-linux-gnu]
      linker = "aarch64-unknown-linux-gnu-gcc"
      EOF
      #ls /usr/lib/sdk/toolchain-aarch64/bin/aarch64-unknown-linux-gnu-gcc
      #ls
      cat configured.sh
      ./configured.sh

  