kind: manual

provides: kernel

depends:
- dependency: tool_chain
  scope: Build
- dependency: tool_chain_cross
  scope: Build
- dependency: tool_chain_kmod
  scope: Build

sources:
  - kind: git_source
    url: https://git.kernel.org/pub/scm/linux/kernel/git/torvalds/linux.git
    #sha: 99cd00206e418c5fb0e9bd885ded84b8781194b7
    sha: e0dccc3b76fb35bb257b4118367a883073d7390e

environment:
  join_strategy: Join
  variables: {}

context: build_target

plugin_variables:
  join_strategy: Join
  variables:
    host-arch: x86
    make: make -j ARCH=x86 O=build bzImage modules 
    config_build-commands: "%{make}"
    
    config_configure-commands: |
      echo "root:x:0:0:root:/root:/bin/bash" > /etc/passwd
      make ARCH=x86 O=build x86_64_defconfig

      cd build
      touch config_extra.fragments
      echo "CONFIG_UEVENT_HELPER=y" >> config_extra.fragments
      echo "CONFIG_MODULE_COMPRESS_NONE=y" >> config_extra.fragments

      echo "FONT_SUPPORT=y" >> config_extra.fragments
      echo "FONT_8x16=y" >> config_extra.fragments
      echo "MEDIA_CONTROLLER=y" >> config_extra.fragments
      echo "VIDEO_V4L2_SUBDEV_API=y" >> config_extra.fragments
      echo "VIDEOBUF2_VMALLOC=m" >> config_extra.fragments
      #echo "VIDEOBUF2_DMA_CONTIG=m" >> config_extra.fragments
      echo "VIDEO_V4L2_TPG=n" >> config_extra.fragments
      echo "VIMC=y" >> config_extra.fragments
      echo "CONFIG_MEDIA_TEST_SUPPORT=y" >> config_extra.fragments
      echo "CONFIG_V4L_TEST_DRIVERS=y" >> config_extra.fragments
      echo "MEDIA_SUPPORT=m" >> config_extra.fragments
      echo "MEDIA_TEST_SUPPORT=n" >> config_extra.fragments
      echo "V4L_TEST_DRIVERS=n" >> config_extra.fragments
      echo "VIDEO_DEV=m" >> config_extra.fragments

      #echo "CONFIG_VIDEO_VIM2M=m" >> config_extra.fragments
      #echo "CONFIG_VIDEO_VIMC=m" >> config_extra.fragments
      #echo "CONFIG_VIDEO_VIVID=m" >> config_extra.fragments


      echo "CONFIG_MEDIA_TEST_SUPPORT=y" >> config_extra.fragments
      echo "CONFIG_V4L_TEST_DRIVERS=y" >> config_extra.fragments

      echo "CONFIG_VIDEO_VIM2M=y" >> config_extra.fragments
      echo "CONFIG_VIDEO_VIMC=y" >> config_extra.fragments
      echo "CONFIG_VIDEO_VIVID=y" >> config_extra.fragments

      ../scripts/kconfig/merge_config.sh -m .config config_extra.fragments
      cd ../

    config_install-commands: |
      make INSTALL_MOD_PATH="/%{install-root}/" ARCH=x86 O=build modules_install
      mkdir -p /%{install-root}/boot/
      cp build/arch/x86/boot/bzImage /%{install-root}/boot/
      rm -rf /%{install-root}/boot/dts
