kind: manual

provides: kernel

depends:
- dependency: tool_chain
  scope: Build
- dependency: tool_chain_cross
  scope: Build
- dependency: tool_chain_kmod
  scope: Build

sources:
  - kind: git_source
    url: https://github.com/raspberrypi/linux
    #sha: 9de205a1a4376ed40c70a85152aee177b6867dd6
    sha: 08a29ba5fb33886d3d1095d66110bdd38f6820a2


plugin_variables:
  join_strategy: Join
  variables:
    host-arch: x86_64
    make: make -j10 O=build ARCH=arm64 CROSS_COMPILE=aarch64-unknown-linux-gnu- Image modules dtbs
    config_build-commands: "%{make}"

    config_configure-commands: |
      echo "root:x:0:0:root:/root:/bin/bash" > /etc/passwd
      KERNEL=kernel8 make O=build ARCH=arm64 CROSS_COMPILE=aarch64-unknown-linux-gnu- bcm2711_defconfig > log2.txt

      cd build
      touch config_extra.fragments
      echo "CONFIG_UEVENT_HELPER=y" >> config_extra.fragments
      echo "CONFIG_MODULE_COMPRESS_NONE=y" >> config_extra.fragments

      ../scripts/kconfig/merge_config.sh -m .config config_extra.fragments
      cd ../

    config_install-commands: |
      make INSTALL_MOD_PATH="/%{install-root}/" O=build ARCH=arm64 CROSS_COMPILE=aarch64-unknown-linux-gnu- modules_install
      mkdir -p /output_dir/boot/
      mkdir -p /output_dir/boot/overlays
      cp build/arch/arm64/boot/Image /output_dir/boot/kernel8.img
      cp build/arch/arm64/boot/dts/broadcom/*.dtb* /output_dir/boot/
      cp build/arch/arm64/boot/dts/overlays/* /output_dir/boot/overlays/

